Tyler Merrill - Assignment 2
…
First Pass-through:

Initialization

To begin this assignment, I loaded the requisite data set, ‘TED2016’ into R studio (after initiating the ‘tidyverse’ and ‘haven’ packages) with the following code:   

library(haven)
TEDS_2016 <- haven::read_stata("https://github.com/datageneration/home/blob/master/DataProgramming/data/TEDS_2016.dta?raw=true")

Naming the dataset as ‘TEDS_2016’. To get a preliminary ‘hold’ of the data, I go ahead and clean the variable names using:

TEDS_2016 |> janitor::clean_names()

# A tibble: 1,690 × 54
   district     sex     age     edu     arear   career  career8 ethnic  party   
   <dbl+lbl>    <dbl+l> <dbl+l> <dbl+l> <dbl+l> <dbl+l> <dbl+l> <dbl+l> <dbl+lb>
 1 201 [Yi Lan… 2 [Fem… 4 [50-… 4 [Col… 1 [Tai… 1 [Hig… 1 [Civ… 1 [Tai… 25 [Neu…
 2 201 [Yi Lan… 2 [Fem… 2 [30-… 5 [Abo… 1 [Tai… 2 [Low… 3 [CLE… 2 [Bot… 25 [Neu…
 3 201 [Yi Lan… 1 [Mal… 5 [Abo… 5 [Abo… 1 [Tai… 1 [Hig… 1 [Civ… 2 [Bot…  3 [Lea…
 4 201 [Yi Lan… 1 [Mal… 4 [50-… 2 [Jun… 1 [Tai… 4 [WOR… 4 [Lab… 1 [Tai… 25 [Neu…
 5 201 [Yi Lan… 2 [Fem… 5 [Abo… 1 [Bel… 1 [Tai… 3 [FAR… 5 [FAR… 9 [Nor… 25 [Neu…
 6 201 [Yi Lan… 2 [Fem… 5 [Abo… 2 [Jun… 1 [Tai… 2 [Low… 7 [Hou… 1 [Tai…  6 [Som…
 7 201 [Yi Lan… 1 [Mal… 5 [Abo… 1 [Bel… 1 [Tai… 4 [WOR… 4 [Lab… 2 [Bot… 25 [Neu…
 8 201 [Yi Lan… 2 [Fem… 4 [50-… 5 [Abo… 1 [Tai… 1 [Hig… 2 [Man… 1 [Tai… 24 [Som…
 9 201 [Yi Lan… 2 [Fem… 5 [Abo… 1 [Bel… 1 [Tai… 4 [WOR… 4 [Lab… 1 [Tai… 25 [Neu…
10 201 [Yi Lan… 1 [Mal… 4 [50-… 1 [Bel… 1 [Tai… 3 [FAR… 5 [FAR… 2 [Bot… 25 [Neu…
# ℹ 1,680 more rows
# ℹ 45 more variables: party_id <dbl+lbl>, tondu <dbl+lbl>, tondu3 <dbl+lbl>,
#   n_i2 <dbl+lbl>, votetsai <dbl>, green <dbl>, votetsai_nm <dbl>,
#   votetsai_all <dbl>, independence <dbl>, unification <dbl>, sq <dbl>,
#   taiwanese <dbl>, edu_2 <dbl>, female <dbl>, whitecollar <dbl>,
#   lowincome <dbl>, income <dbl>, income_nm <dbl>, age_2 <dbl>, kmt <dbl>,
#   dpp <dbl>, npp <dbl>, noparty <dbl>, pfp <dbl>, south <dbl>, north <dbl>, …
…
